\relax 
\@writefile{toc}{\contentsline {subsection}{\numberline {Appendix A.1}Model Code}{47}{subsection.A.1}}
\newlabel{actr_code}{{3}{47}{The PacMan model in ACT-R\relax }{lstlisting.3}{}}
\@writefile{lol}{\contentsline {lstlisting}{\numberline {3}The PacMan model in ACT-R}{47}{lstlisting.3}}
\@writefile{toc}{\contentsline {subsection}{\numberline {Appendix A.2}Simulation Code}{56}{subsection.A.2}}
\newlabel{actr_code_sim}{{4}{56}{Simulating the PacMan model\relax }{lstlisting.4}{}}
\@writefile{lol}{\contentsline {lstlisting}{\numberline {4}Simulating the PacMan model}{56}{lstlisting.4}}
\@setckpt{act_r_code}{
\setcounter{page}{58}
\setcounter{equation}{0}
\setcounter{enumi}{5}
\setcounter{enumii}{0}
\setcounter{enumiii}{0}
\setcounter{enumiv}{0}
\setcounter{footnote}{9}
\setcounter{mpfootnote}{0}
\setcounter{part}{0}
\setcounter{section}{1}
\setcounter{subsection}{2}
\setcounter{subsubsection}{0}
\setcounter{paragraph}{0}
\setcounter{subparagraph}{0}
\setcounter{figure}{9}
\setcounter{table}{0}
\setcounter{tnote}{0}
\setcounter{fnote}{0}
\setcounter{cnote}{0}
\setcounter{ead}{1}
\setcounter{author}{0}
\setcounter{affn}{0}
\setcounter{NAT@ctr}{0}
\setcounter{@todonotes@numberoftodonotes}{0}
\setcounter{Item}{25}
\setcounter{Hfootnote}{9}
\setcounter{bookmark@seq@number}{47}
\setcounter{lstnumber}{48}
\setcounter{section@level}{2}
\setcounter{lstlisting}{4}
}
