\relax 
\citation{West1944}
\citation{Lebiere1999}
\citation{Best2006}
\citation{Lent1999}
\citation{Lent1998}
\@writefile{toc}{\contentsline {section}{\numberline {3}Applications in game engines}{25}{section.3}}
\newlabel{engines}{{3}{25}{Applications in game engines\relax }{section.3}{}}
\@writefile{toc}{\contentsline {subsection}{\numberline {3.1}Rock Paper Scissors}{25}{subsection.3.1}}
\@writefile{toc}{\contentsline {subsection}{\numberline {3.2}ACT-R Unreal}{25}{subsection.3.2}}
\newlabel{act_unreal}{{3.2}{25}{ACT-R Unreal\relax }{subsection.3.2}{}}
\@writefile{toc}{\contentsline {subsection}{\numberline {3.3}SOAR Games Project}{25}{subsection.3.3}}
\citation{Laird2001}
\citation{Mohan}
\citation{Mohan2011}
\citation{Laird}
\citation{Laird1998}
\@writefile{toc}{\contentsline {subsubsection}{\numberline {3.3.1}Quake 2 and Descent 3}{26}{subsubsection.3.3.1}}
\@writefile{toc}{\contentsline {subsubsection}{\numberline {3.3.2}USARSim}{26}{subsubsection.3.3.2}}
\@writefile{toc}{\contentsline {subsubsection}{\numberline {3.3.3}Infinite Mario}{26}{subsubsection.3.3.3}}
\@writefile{toc}{\contentsline {subsubsection}{\numberline {3.3.4}TacAir SOAR}{26}{subsubsection.3.3.4}}
\citation{Ritter2002}
\citation{Pronovost2010}
\citation{Lebiere}
\citation{Ritter2001}
\citation{Gluck1988}
\citation{Shah}
\@writefile{toc}{\contentsline {subsection}{\numberline {3.4}General}{27}{subsection.3.4}}
\@setckpt{applications}{
\setcounter{page}{28}
\setcounter{equation}{0}
\setcounter{enumi}{5}
\setcounter{enumii}{0}
\setcounter{enumiii}{0}
\setcounter{enumiv}{0}
\setcounter{footnote}{2}
\setcounter{mpfootnote}{0}
\setcounter{part}{0}
\setcounter{section}{3}
\setcounter{subsection}{4}
\setcounter{subsubsection}{0}
\setcounter{paragraph}{0}
\setcounter{subparagraph}{0}
\setcounter{figure}{5}
\setcounter{table}{0}
\setcounter{tnote}{0}
\setcounter{fnote}{0}
\setcounter{cnote}{0}
\setcounter{ead}{1}
\setcounter{author}{0}
\setcounter{affn}{0}
\setcounter{NAT@ctr}{0}
\setcounter{@todonotes@numberoftodonotes}{0}
\setcounter{Item}{25}
\setcounter{Hfootnote}{2}
\setcounter{bookmark@seq@number}{16}
\setcounter{lstnumber}{41}
\setcounter{section@level}{2}
\setcounter{lstlisting}{0}
}
