\relax 
\citation{Feist2009}
\citation{Newell1973}
\citation{Newell1990}
\citation{Anderson2004}
\citation{Anderson1976}
\citation{Anderson1993}
\citation{Anderson1998}
\citation{Anderson2004}
\@writefile{toc}{\contentsline {section}{\numberline {2}Cognitive Modelling Tools}{3}{section.2}}
\newlabel{tools}{{2}{3}{Cognitive Modelling Tools\relax }{section.2}{}}
\@writefile{toc}{\contentsline {subsection}{\numberline {2.1}Adaptive Control of Thought-Rational ( ACT-R )}{3}{subsection.2.1}}
\@writefile{lof}{\contentsline {figure}{\numberline {1}{\ignorespaces Internal structure of ACT-R - \citep  {Anderson2004}}}{4}{figure.1}}
\newlabel{Fig:actr}{{1}{4}{Internal structure of ACT-R - \citep {Anderson2004}\relax }{figure.1}{}}
\citation{Newell1990}
\newlabel{proc_mem}{{2.1}{7}{Adaptive Control of Thought-Rational ( ACT-R )\relax }{figure.1}{}}
\citation{Anderson2004}
\citation{Stewart2006}
\@writefile{toc}{\contentsline {subsubsection}{\numberline {2.1.1}PyACT-R}{8}{subsubsection.2.1.1}}
\citation{Anderson1998}
\citation{Laird1987}
\@writefile{toc}{\contentsline {subsection}{\numberline {2.2}SOAR}{15}{subsection.2.2}}
\citation{Laird2012}
\@writefile{toc}{\contentsline {subsubsection}{\numberline {2.2.1}Overview of SOAR}{16}{subsubsection.2.2.1}}
\@writefile{lof}{\contentsline {figure}{\numberline {2}{\ignorespaces The initial state of the system}}{17}{figure.2}}
\newlabel{fig:soar_blocks_initial}{{2}{17}{The initial state of the system\relax }{figure.2}{}}
\@writefile{lof}{\contentsline {figure}{\numberline {3}{\ignorespaces An abstract representation of the working memory at the beginning of the simulation, no operators have been selected}}{18}{figure.3}}
\newlabel{fig:soar_blocks_wm_initial}{{3}{18}{An abstract representation of the working memory at the beginning of the simulation, no operators have been selected\relax }{figure.3}{}}
\@writefile{lof}{\contentsline {figure}{\numberline {4}{\ignorespaces After selection of the first operator}}{19}{figure.4}}
\newlabel{fig:soar_blocks_wm_potential}{{4}{19}{After selection of the first operator\relax }{figure.4}{}}
\@writefile{lof}{\contentsline {figure}{\numberline {5}{\ignorespaces Abstract view of production memory}}{20}{figure.5}}
\newlabel{fig:soar_blocks_wm_potential}{{5}{20}{Abstract view of production memory\relax }{figure.5}{}}
\citation{Muller2008}
\citation{Johnson97}
\@writefile{toc}{\contentsline {subsection}{\numberline {2.3}Comparing SOAR and ACT-R}{24}{subsection.2.3}}
\@setckpt{cog_mod_tools}{
\setcounter{page}{25}
\setcounter{equation}{0}
\setcounter{enumi}{5}
\setcounter{enumii}{0}
\setcounter{enumiii}{0}
\setcounter{enumiv}{0}
\setcounter{footnote}{0}
\setcounter{mpfootnote}{0}
\setcounter{part}{0}
\setcounter{section}{2}
\setcounter{subsection}{3}
\setcounter{subsubsection}{0}
\setcounter{paragraph}{0}
\setcounter{subparagraph}{0}
\setcounter{figure}{5}
\setcounter{table}{0}
\setcounter{tnote}{0}
\setcounter{fnote}{0}
\setcounter{cnote}{0}
\setcounter{ead}{1}
\setcounter{author}{0}
\setcounter{affn}{0}
\setcounter{NAT@ctr}{0}
\setcounter{@todonotes@numberoftodonotes}{0}
\setcounter{Item}{25}
\setcounter{Hfootnote}{0}
\setcounter{bookmark@seq@number}{7}
\setcounter{lstnumber}{41}
\setcounter{section@level}{2}
\setcounter{lstlisting}{0}
}
