\relax 
\citation{Ierusalimschy1996}
\citation{Harel1987}
\@writefile{toc}{\contentsline {section}{\numberline {7}Overview of already existing techniques}{41}{section.7}}
\@writefile{toc}{\contentsline {subsection}{\numberline {7.1}Plain old programming}{41}{subsection.7.1}}
\@writefile{toc}{\contentsline {subsection}{\numberline {7.2}Scripting}{41}{subsection.7.2}}
\citation{DyckhoffMax}
\citation{Pillosu}
\citation{Lim}
\citation{Champandard}
\citation{Ruskin2012}
\@writefile{toc}{\contentsline {subsection}{\numberline {7.3}Statecharts}{42}{subsection.7.3}}
\newlabel{statecharts}{{7.3}{42}{Statecharts\relax }{subsection.7.3}{}}
\@writefile{toc}{\contentsline {subsection}{\numberline {7.4}Behaviour Trees}{42}{subsection.7.4}}
\@writefile{toc}{\contentsline {subsection}{\numberline {7.5}Rule Databases for Contextual Dialog and Game Logic}{43}{subsection.7.5}}
\@setckpt{comparison}{
\setcounter{page}{44}
\setcounter{equation}{0}
\setcounter{enumi}{5}
\setcounter{enumii}{0}
\setcounter{enumiii}{0}
\setcounter{enumiv}{0}
\setcounter{footnote}{9}
\setcounter{mpfootnote}{0}
\setcounter{part}{0}
\setcounter{section}{7}
\setcounter{subsection}{5}
\setcounter{subsubsection}{0}
\setcounter{paragraph}{0}
\setcounter{subparagraph}{0}
\setcounter{figure}{9}
\setcounter{table}{0}
\setcounter{tnote}{0}
\setcounter{fnote}{0}
\setcounter{cnote}{0}
\setcounter{ead}{1}
\setcounter{author}{0}
\setcounter{affn}{0}
\setcounter{NAT@ctr}{0}
\setcounter{@todonotes@numberoftodonotes}{0}
\setcounter{Item}{25}
\setcounter{Hfootnote}{9}
\setcounter{bookmark@seq@number}{42}
\setcounter{lstnumber}{13}
\setcounter{section@level}{2}
\setcounter{lstlisting}{2}
}
