\relax 
\citation{Syriani2010}
\citation{Laird2001}
\@writefile{toc}{\contentsline {section}{\numberline {8}Future work}{44}{section.8}}
\@writefile{toc}{\contentsline {section}{\numberline {9}Conclusion}{44}{section.9}}
\@setckpt{future}{
\setcounter{page}{46}
\setcounter{equation}{0}
\setcounter{enumi}{5}
\setcounter{enumii}{0}
\setcounter{enumiii}{0}
\setcounter{enumiv}{0}
\setcounter{footnote}{9}
\setcounter{mpfootnote}{0}
\setcounter{part}{0}
\setcounter{section}{9}
\setcounter{subsection}{0}
\setcounter{subsubsection}{0}
\setcounter{paragraph}{0}
\setcounter{subparagraph}{0}
\setcounter{figure}{9}
\setcounter{table}{0}
\setcounter{tnote}{0}
\setcounter{fnote}{0}
\setcounter{cnote}{0}
\setcounter{ead}{1}
\setcounter{author}{0}
\setcounter{affn}{0}
\setcounter{NAT@ctr}{0}
\setcounter{@todonotes@numberoftodonotes}{0}
\setcounter{Item}{25}
\setcounter{Hfootnote}{9}
\setcounter{bookmark@seq@number}{44}
\setcounter{lstnumber}{13}
\setcounter{section@level}{1}
\setcounter{lstlisting}{2}
}
