\relax 
\bibstyle{abbrvnat}
\providecommand\HyperFirstAtBeginDocument{\AtBeginDocument}
\HyperFirstAtBeginDocument{\ifx\hyper@anchor\@undefined
\global\let\oldcontentsline\contentsline
\gdef\contentsline#1#2#3#4{\oldcontentsline{#1}{#2}{#3}}
\global\let\oldnewlabel\newlabel
\gdef\newlabel#1#2{\newlabelxx{#1}#2}
\gdef\newlabelxx#1#2#3#4#5#6{\oldnewlabel{#1}{{#2}{#3}}}
\AtEndDocument{\ifx\hyper@anchor\@undefined
\let\contentsline\oldcontentsline
\let\newlabel\oldnewlabel
\fi}
\fi}
\global\let\hyper@last\relax 
\gdef\HyperFirstAtBeginDocument#1{#1}
\providecommand\HyField@AuxAddToFields[1]{}
\emailauthor{kevin.wyckmans@student.ua.ac.be}{}
\urlauthor{msdl.cs.mcgill.ca/people/kevin}{}
\@input{introduction.aux}
\@input{cog_mod_tools.aux}
\@input{applications.aux}
\@input{sim_pac_man_general.aux}
\@input{sim_pac_man.aux}
\@input{sim_pac_man_soar.aux}
\@input{comparison.aux}
\@input{future.aux}
\@writefile{toc}{\contentsline {section}{\numberline {Appendix A}PyACT-R PacMan model}{46}{appendix.A}}
\@input{act_r_code.aux}
\@writefile{toc}{\contentsline {section}{\numberline {Appendix B}SOAR PacMan model}{58}{appendix.B}}
\@input{soar_code.aux}
\bibdata{biblio}
\bibcite{Ambinder}{{1}{}{{Ambinder}}{{}}}
\bibcite{Anderson1976}{{2}{1976}{{Anderson}}{{}}}
\bibcite{Anderson1993}{{3}{1993}{{Anderson}}{{}}}
\bibcite{Anderson1998}{{4}{1998}{{Anderson and Lebiere}}{{}}}
\bibcite{Anderson2004}{{5}{2004}{{Anderson et~al.}}{{Anderson, Bothell, Byrne, Douglass, Lebiere, and Qin}}}
\bibcite{Best2006}{{6}{2006}{{Best and Lebiere}}{{}}}
\bibcite{Champandard}{{7}{}{{Champandard and Dawe}}{{}}}
\bibcite{DyckhoffMax}{{8}{}{{Dyckhoff, Max}}{{}}}
\bibcite{Feist2009}{{9}{2009}{{Feist and Rosenberg}}{{}}}
\bibcite{Gluck1988}{{10}{1988}{{Gluck}}{{}}}
\bibcite{Harel1987}{{11}{1987}{{Harel}}{{}}}
\bibcite{Ierusalimschy1996}{{12}{1996}{{Ierusalimschy}}{{}}}
\bibcite{Laird2012}{{13}{2012}{{Laird}}{{}}}
\@writefile{toc}{\contentsline {section}{\numberline {Appendix C}References}{65}{appendix.C}}
\newlabel{references}{{Appendix C}{65}{References\relax }{appendix.C}{}}
\bibcite{Laird1987}{{14}{1987}{{Laird and Newell}}{{}}}
\bibcite{Laird}{{15}{}{{Laird et~al.}}{{Laird, Coulter, Jones, Kenny, Koss, and Nielsen}}}
\bibcite{Laird1998}{{16}{1998}{{Laird et~al.}}{{Laird, Jones, and Arbor}}}
\bibcite{Laird2001}{{17}{2001}{{Laird et~al.}}{{Laird, Arbor, and Duchi}}}
\bibcite{Lebiere}{{18}{}{{Lebiere and Best}}{{}}}
\bibcite{Lebiere1999}{{19}{1999}{{Lebiere and West}}{{}}}
\bibcite{Lent1999}{{20}{1999}{{Lent and Laird}}{{}}}
\bibcite{Lent1998}{{21}{1998}{{Lent et~al.}}{{Lent, Laird, Buckman, Hartford, Houchard, Steinkraus, and Tedrake}}}
\bibcite{Lim}{{22}{}{{Lim et~al.}}{{Lim, Baumgarten, and Colton}}}
\bibcite{Mohan2011}{{23}{2011}{{Mohan and Laird}}{{}}}
\bibcite{Mohan}{{24}{}{{Mohan and Laird}}{{}}}
\bibcite{Muller2008}{{25}{2008}{{Muller et~al.}}{{Muller, Heuvelink, and Both}}}
\bibcite{Newell1973}{{26}{1973}{{Newell}}{{}}}
\bibcite{Newell1990}{{27}{1990}{{Newell}}{{}}}
\bibcite{Pillosu}{{28}{}{{Pillosu}}{{}}}
\bibcite{Pronovost2010}{{29}{2010}{{Pronovost and West}}{{}}}
\bibcite{Ritter2001}{{30}{2001}{{Ritter and Wallach}}{{}}}
\bibcite{Ritter2002}{{31}{2002}{{Ritter et~al.}}{{Ritter, Shadbolt, Elliman, Young, Gobet, and Baxter}}}
\bibcite{Ruskin2012}{{32}{2012}{{Ruskin}}{{}}}
\bibcite{Shah}{{33}{}{{Shah et~al.}}{{Shah, Rajyaguru, Amant, and Ritter}}}
\bibcite{Stewart2006}{{34}{2006}{{Stewart}}{{}}}
\bibcite{Stewart2007}{{35}{2007}{{Stewart and West}}{{}}}
\bibcite{Syriani2008}{{36}{2008}{{Syriani and Vangheluwe}}{{}}}
\bibcite{Syriani2010}{{37}{2010}{{Syriani and Vangheluwe}}{{}}}
\bibcite{West1944}{{38}{2006}{{West et~al.}}{{West, Lebiere, and Bothell}}}
