\relax 
\@writefile{toc}{\contentsline {section}{\numberline {6}Simulating Pac-Man in SOAR}{38}{section.6}}
\newlabel{pacman_soar}{{6}{38}{Simulating Pac-Man in SOAR\relax }{section.6}{}}
\@writefile{toc}{\contentsline {subsection}{\numberline {6.1}The PacMan case study}{38}{subsection.6.1}}
\@writefile{toc}{\contentsline {subsubsection}{\numberline {6.1.1}Use of time}{38}{subsubsection.6.1.1}}
\@writefile{toc}{\contentsline {subsection}{\numberline {6.2}Experiment}{38}{subsection.6.2}}
\@writefile{lof}{\contentsline {figure}{\numberline {9}{\ignorespaces The PacMan environment. On the left you can see the game field. On the right is a representation of what pacman can see, in this case the entire playing field}}{39}{figure.9}}
\newlabel{Fig:soar_pac}{{9}{39}{The PacMan environment. On the left you can see the game field. On the right is a representation of what pacman can see, in this case the entire playing field\relax }{figure.9}{}}
\@writefile{toc}{\contentsline {subsection}{\numberline {6.3}Preliminary conclusion}{39}{subsection.6.3}}
\@writefile{toc}{\contentsline {subsection}{\numberline {6.4}Suggested solution}{40}{subsection.6.4}}
\newlabel{pacman}{{6.4}{40}{Suggested solution\relax }{subsection.6.4}{}}
\@setckpt{sim_pac_man_soar}{
\setcounter{page}{41}
\setcounter{equation}{0}
\setcounter{enumi}{5}
\setcounter{enumii}{0}
\setcounter{enumiii}{0}
\setcounter{enumiv}{0}
\setcounter{footnote}{4}
\setcounter{mpfootnote}{0}
\setcounter{part}{0}
\setcounter{section}{6}
\setcounter{subsection}{4}
\setcounter{subsubsection}{0}
\setcounter{paragraph}{0}
\setcounter{subparagraph}{0}
\setcounter{figure}{9}
\setcounter{table}{0}
\setcounter{tnote}{0}
\setcounter{fnote}{0}
\setcounter{cnote}{0}
\setcounter{ead}{1}
\setcounter{author}{0}
\setcounter{affn}{0}
\setcounter{NAT@ctr}{0}
\setcounter{@todonotes@numberoftodonotes}{0}
\setcounter{Item}{25}
\setcounter{Hfootnote}{4}
\setcounter{bookmark@seq@number}{36}
\setcounter{lstnumber}{13}
\setcounter{section@level}{2}
\setcounter{lstlisting}{2}
}
