\relax 
\citation{Syriani2008}
\@writefile{toc}{\contentsline {section}{\numberline {5}Simulating Pac-Man in Act-R}{32}{section.5}}
\newlabel{pacman}{{5}{32}{Simulating Pac-Man in Act-R\relax }{section.5}{}}
\@writefile{toc}{\contentsline {subsection}{\numberline {5.1}The PacMan Language}{32}{subsection.5.1}}
\@writefile{toc}{\contentsline {subsection}{\numberline {5.2}Semantics}{32}{subsection.5.2}}
\newlabel{pacrule}{{1}{32}{Example rule from the PacMan agent\relax }{lstlisting.1}{}}
\@writefile{lol}{\contentsline {lstlisting}{\numberline {1}Example rule from the PacMan agent}{32}{lstlisting.1}}
\citation{Stewart2007}
\citation{Syriani2008}
\@writefile{toc}{\contentsline {subsection}{\numberline {5.3}The PacMan case study}{33}{subsection.5.3}}
\@writefile{toc}{\contentsline {subsubsection}{\numberline {5.3.1}Use of time}{33}{subsubsection.5.3.1}}
\citation{Syriani2008}
\newlabel{pacrule}{{2}{34}{Example rule from the PacMan agent\relax }{lstlisting.2}{}}
\@writefile{lol}{\contentsline {lstlisting}{\numberline {2}Example rule from the PacMan agent}{34}{lstlisting.2}}
\@writefile{toc}{\contentsline {subsection}{\numberline {5.4}Experiment}{34}{subsection.5.4}}
\@writefile{lof}{\contentsline {figure}{\numberline {6}{\ignorespaces Time till end}}{35}{figure.6}}
\newlabel{Fig:avg_durations_actr}{{6}{35}{Time till end\relax }{figure.6}{}}
\@writefile{lof}{\contentsline {figure}{\numberline {7}{\ignorespaces Victory Frequency}}{36}{figure.7}}
\newlabel{Fig:victory_freq_actr}{{7}{36}{Victory Frequency\relax }{figure.7}{}}
\@writefile{toc}{\contentsline {subsection}{\numberline {5.5}Conclusion}{36}{subsection.5.5}}
\@writefile{lof}{\contentsline {figure}{\numberline {8}{\ignorespaces The ACT-R Pacman environment. The yellow arrow represents PacMan, while the purple arrow represents a Ghost. If a square is green, it means there is still a pellet present}}{37}{figure.8}}
\newlabel{Fig:Pacman_env}{{8}{37}{The ACT-R Pacman environment. The yellow arrow represents PacMan, while the purple arrow represents a Ghost. If a square is green, it means there is still a pellet present\relax }{figure.8}{}}
\@setckpt{sim_pac_man}{
\setcounter{page}{38}
\setcounter{equation}{0}
\setcounter{enumi}{5}
\setcounter{enumii}{0}
\setcounter{enumiii}{0}
\setcounter{enumiv}{0}
\setcounter{footnote}{3}
\setcounter{mpfootnote}{0}
\setcounter{part}{0}
\setcounter{section}{5}
\setcounter{subsection}{5}
\setcounter{subsubsection}{0}
\setcounter{paragraph}{0}
\setcounter{subparagraph}{0}
\setcounter{figure}{8}
\setcounter{table}{0}
\setcounter{tnote}{0}
\setcounter{fnote}{0}
\setcounter{cnote}{0}
\setcounter{ead}{1}
\setcounter{author}{0}
\setcounter{affn}{0}
\setcounter{NAT@ctr}{0}
\setcounter{@todonotes@numberoftodonotes}{0}
\setcounter{Item}{25}
\setcounter{Hfootnote}{3}
\setcounter{bookmark@seq@number}{30}
\setcounter{lstnumber}{13}
\setcounter{section@level}{2}
\setcounter{lstlisting}{2}
}
