\relax 
\@writefile{toc}{\contentsline {subsection}{\numberline {Appendix B.1}Model Code}{59}{subsection.B.1}}
\newlabel{runaway_soar}{{5}{59}{The PacMan model in SOAR\relax }{lstlisting.5}{}}
\@writefile{lol}{\contentsline {lstlisting}{\numberline {5}The PacMan model in SOAR}{59}{lstlisting.5}}
\newlabel{chase_soar}{{6}{62}{The Ghost model in SOAR\relax }{lstlisting.6}{}}
\@writefile{lol}{\contentsline {lstlisting}{\numberline {6}The Ghost model in SOAR}{62}{lstlisting.6}}
\@setckpt{soar_code}{
\setcounter{page}{65}
\setcounter{equation}{0}
\setcounter{enumi}{5}
\setcounter{enumii}{0}
\setcounter{enumiii}{0}
\setcounter{enumiv}{0}
\setcounter{footnote}{9}
\setcounter{mpfootnote}{0}
\setcounter{part}{0}
\setcounter{section}{2}
\setcounter{subsection}{1}
\setcounter{subsubsection}{0}
\setcounter{paragraph}{0}
\setcounter{subparagraph}{0}
\setcounter{figure}{9}
\setcounter{table}{0}
\setcounter{tnote}{0}
\setcounter{fnote}{0}
\setcounter{cnote}{0}
\setcounter{ead}{1}
\setcounter{author}{0}
\setcounter{affn}{0}
\setcounter{NAT@ctr}{0}
\setcounter{@todonotes@numberoftodonotes}{0}
\setcounter{Item}{25}
\setcounter{Hfootnote}{9}
\setcounter{bookmark@seq@number}{49}
\setcounter{lstnumber}{118}
\setcounter{section@level}{2}
\setcounter{lstlisting}{6}
}
